<?xml version="1.0" encoding="iso-8859-1"?>
<!-- Generator: Adobe Illustrator 16.0.0, SVG Export Plug-In . SVG Version: 6.00 Build 0)  -->
<!DOCTYPE svg PUBLIC "-//W3C//DTD SVG 1.1//EN" "http://www.w3.org/Graphics/SVG/1.1/DTD/svg11.dtd">
<svg version="1.1" id="Layer_1" xmlns="http://www.w3.org/2000/svg" xmlns:xlink="http://www.w3.org/1999/xlink" x="0px" y="0px"
	 width="1280px" height="800px" viewBox="0 0 1280 800" style="enable-background:new 0 0 1280 800;" xml:space="preserve">
<g>
	<path style="fill:none;stroke:#000000;stroke-miterlimit:10;" d="M367.169,319.677c0.454,8.609,0.151,25.225,0.151,25.225
		s-28.02,64.423-29.417,68.01c-2.907,6.307,1.624,12.953,7.307,12.971c20.901-0.018,72.834,0.293,76.791,0.283
		c6.344,0,10.573-6.344,7.552-12.688c-3.021-7.251-29.001-68.879-29.001-68.879s-0.007-19.029-0.004-24.921
		c7.141-0.077,7.707-16.277-0.601-16.164c-4.154,0-25.452-0.113-33.835,0C359.655,303.627,359.201,318.694,367.169,319.677z"/>
	<path d="M362.94,371.033c-1.964,4.985-17.899,42.068-17.899,42.068s-2.493,5.211,2.644,5.513c3.323,0.302,64.951,0,70.994,0
		c6.042,0,3.021-8.157,3.021-8.157s-17.522-37.763-20.845-43.502C397.531,361.215,376.081,374.507,362.94,371.033z"/>
	<rect x="382" y="323" width="11" height="3"/>
	<rect x="382" y="333" width="11" height="4"/>
	<rect x="382" y="344" width="11" height="4"/>
	<path d="M394,286.75c0,4.004-3.246,7.25-7.25,7.25h-0.499c-4.004,0-7.25-3.246-7.25-7.25v-0.499c0-4.004,3.246-7.25,7.25-7.25
		h0.499c4.004,0,7.25,3.246,7.25,7.25V286.75z"/>
	<path d="M379,270.5c0,2.485-2.015,4.5-4.5,4.5l0,0c-2.485,0-4.5-2.015-4.5-4.5l0,0c0-2.485,2.015-4.5,4.5-4.5l0,0
		C376.985,266,379,268.015,379,270.5L379,270.5z"/>
	<path d="M389,257.677c0,1.835-1.487,3.323-3.322,3.323h-0.355c-1.835,0-3.322-1.488-3.322-3.323v-0.354
		c0-1.835,1.487-3.323,3.322-3.323h0.355c1.835,0,3.322,1.488,3.322,3.323V257.677z"/>
	<path style="fill:#FFFFFF;" d="M368.185,379.655c1.057,0.478,1.33,2.158,0.609,3.755L356.5,410.674
		c-0.721,1.598-2.162,2.506-3.219,2.029l-0.545-0.248c-1.057-0.477-1.331-2.156-0.611-3.754l12.296-27.265
		c0.719-1.597,2.16-2.505,3.217-2.028L368.185,379.655z"/>
</g>
</svg>
