<svg width="829" height="316" xmlns="http://www.w3.org/2000/svg">
 <g>
  <title>Layer 1</title>
  <g id="svg_12">
   <path stroke="#ffffff" id="svg_3" fill="none" stroke-miterlimit="10" d="m391.20343,181.28299c-27.460571,-6.146866 -79.382263,-21.478485 -79.382263,-21.478485s-176.42041,-138.526768 -186.392052,-145.760313c-17.119354,-14.044191 -42.196892,-6.468035 -47.516624,10.259459c-19.308323,61.592873 -68.398891,214.331116 -72.034809,225.994431c-5.877682,18.694809 10.1329,36.664261 32.861656,33.274338c25.576992,-2.598999 243.245342,-25.595093 243.245342,-25.595093s59.785706,16.514679 78.293488,21.64444c-6.372833,21.106415 43.993408,36.85022 51.333771,12.276245c3.848511,-12.240143 23.937378,-74.891632 31.34906,-99.689087c5.626526,-19.12442 -41.286469,-33.550003 -51.757568,-10.925934z" stroke-width="2"/>
   <path id="svg_2" fill="#d1ffd1" d="m402.49646,293.390228c0.857635,-3.906525 8.740173,2.843903 6.242981,8.866302c1.061646,1.59259 4.102539,3.513031 4.102539,3.513031s412.017273,3.814209 415.359192,-8.254669c0.637878,-8.577179 -403.152924,2.399597 -412.683624,-1.782623c-6.454193,-2.833191 -11.126068,-21.331238 -33.018646,-43.454803c-51.253845,-51.795166 -131.077026,-21.892029 -160.157227,-67.513565c-18.075424,13.383072 4.484985,58.969818 4.484985,58.969818l58.853851,1.022476l86.492859,26.552002c0,0 -1.426971,6.022369 -2.853943,14.052216c-2.140442,13.383057 32.106812,16.728821 33.177032,8.029816z"/>
   <rect transform="matrix(-0.403689 1.2837 -1.36875 -0.378607 1639.86 93.4771)" id="svg_6" height="9" width="24.999" y="852.113934" x="348.012757" fill="url(#svg_23)"/>
   <path id="svg_4" d="m221.389877,184.763901l-103.512283,-149.950535c0,0 -13.890114,-11.825274 -19.595131,3.041973c-4.028343,9.53141 -60.091076,191.384499 -65.689075,209.189339c-5.597996,17.802155 22.527557,15.904449 22.527557,15.904449l171.748501,-19.214081l-5.479568,-58.971146z" fill="#00ff00"/>
   <path id="svg_8" fill="#FFFFFF" d="m201.847549,132.15509c-2.480072,2.704712 -8.011002,2.040894 -12.360397,-1.466812l-74.25515,-59.911949c-4.353691,-3.511711 -5.869141,-8.546425 -3.393349,-11.248466l1.284271,-1.390503c2.475807,-2.702034 8.005302,-2.047596 12.357567,1.462776l74.256569,59.917313c4.349411,3.507706 5.866287,8.541084 3.391907,11.239113l-1.281418,1.398529l0,0l0,0l0,0z"/>
   <path id="svg_9" fill="#CCCCCC" d="m201.847549,132.15509c-2.480072,2.704712 -8.011002,2.040894 -12.360397,-1.466812l-11.430008,-9.222244l-31.072266,-44.513412l52.753616,42.56617c4.349396,3.507706 5.866257,8.541084 3.391907,11.239098l-1.282852,1.397202z"/>
   <rect transform="matrix(-0.403689 1.2837 -1.36875 -0.378607 1639.86 93.4771)" height="9" width="24.999" y="827.586383" x="348.009207" fill="url(#svg_23)" id="svg_1"/>
   <rect transform="matrix(-0.403547 1.2837 -1.36875 -0.378473 1584.12 112.826)" id="svg_7" height="9" width="25" y="844.372025" x="323.445698" fill="url(#svg_23)"/>
  </g>
 </g>
 <defs>
  <linearGradient id="svg_5">
   <stop stop-color="#ffffff" stop-opacity="0.996094" offset="0"/>
   <stop stop-color="#e2e2e2" stop-opacity="0.996094" offset="1"/>
  </linearGradient>
  <linearGradient id="svg_20" x1="0" y1="0" x2="1" y2="0">
   <stop stop-color="#dddddd" stop-opacity="0.992188" offset="0.073486"/>
   <stop stop-color="#ffffff" stop-opacity="0.996094" offset="0.530518"/>
  </linearGradient>
  <linearGradient id="svg_21" x1="0" y1="0" x2="1" y2="0.34375">
   <stop stop-color="#dddddd" stop-opacity="0.992188" offset="0.073486"/>
   <stop stop-color="#ffffff" stop-opacity="0.996094" offset="0.530518"/>
  </linearGradient>
  <linearGradient id="svg_22" x1="0.38208" y1="1" x2="0.483643" y2="0">
   <stop stop-color="#dddddd" stop-opacity="0.992188" offset="0.073486"/>
   <stop stop-color="#ffffff" stop-opacity="0.996094" offset="0.530518"/>
  </linearGradient>
  <linearGradient id="svg_23" x1="0.38208" y1="1" x2="0.483643" y2="0">
   <stop stop-color="#ffffff" stop-opacity="0.996094" offset="0.686768"/>
   <stop stop-color="#dddddd" stop-opacity="0.992188" offset="1"/>
  </linearGradient>
 </defs>
</svg>