<svg width="217" height="235" xmlns="http://www.w3.org/2000/svg">
 <g>
  <title>Layer 1</title>
  <g id="svg_2">
   <path id="svg_3" fill="#7f3f00" d="m76.999023,94.834015c-16.265991,0 -29.5,-13.234009 -29.5,-29.5s13.234009,-29.5 29.5,-29.5s29.5,13.234009 29.5,29.5s-13.233032,29.5 -29.5,29.5z"/>
   <path fill="#7f3f00" id="svg_4" d="m76.999023,38.334015c14.888,0 27,12.112 27,27s-12.112,27 -27,27s-27,-12.112 -27,-27s12.112976,-27 27,-27m0,-5c-17.672974,0 -32,14.326996 -32,32s14.327026,32 32,32s32,-14.326996 32,-32s-14.325989,-32 -32,-32l0,0z"/>
  </g>
  <g id="svg_5">
   <path id="svg_6" fill="#ba7a3f" d="m150.334045,105.502014c-14.796021,0 -26.833984,-12.037994 -26.833984,-26.833984c0,-14.796021 12.037964,-26.833008 26.833984,-26.833008s26.833008,12.037994 26.833008,26.833008c-0.000061,14.79599 -12.037048,26.833984 -26.833008,26.833984z"/>
   <path fill="#ba7a3f" id="svg_7" d="m150.334045,54.334015c13.416992,0 24.333008,10.915985 24.333008,24.333008c0,13.417999 -10.916016,24.333984 -24.333008,24.333984c-13.41803,0 -24.333984,-10.915985 -24.333984,-24.333984c-0.000061,-13.416016 10.915955,-24.333008 24.333984,-24.333008m0,-5c-16.200989,0 -29.333984,13.132996 -29.333984,29.333008s13.132996,29.333984 29.333984,29.333984c16.200012,0 29.333008,-13.132996 29.333008,-29.333984s-13.133057,-29.333008 -29.333008,-29.333008l0,0z"/>
  </g>
  <path stroke-width="2" stroke="#ffffff" fill="#007f00" id="svg_8" d="m9.999023,129.334015c0,0 12.666992,-23.333008 31.333008,-23.333008s45.333008,-2 70,-1.332977s26,21.332977 26,21.332977l12,79.333008c0,0 -73.333008,29.333984 -121.333008,-33.333008c-11.333008,-7.332977 -18,-42.666992 -18,-42.666992z"/>
  <path fill="#d4ffaa" id="svg_9" stroke="#FFFFFF" stroke-width="2" stroke-miterlimit="10" d="m103.333008,126.001007c3.333008,-17.333008 54.666992,-11.333008 72,-10s31.333008,28 31.333008,28l-29.333008,45.333008c0,0 -24.666992,26 -73.666992,24.666992c-8.333008,-7.332977 -3.666016,-70.666992 -0.333008,-88z"/>
  <circle fill="#8e4b0c" id="svg_10" stroke="#FFFFFF" stroke-width="0" stroke-miterlimit="10" r="24" cy="152.001015" cx="99.666016"/>
  <path stroke-width="0" id="svg_11" fill="#FFFFFF" stroke="#000000" stroke-miterlimit="10" d="m39.333008,176.66803c0,2.209015 -1.791016,4 -4,4l0,0c-2.208984,0 -4,-1.790985 -4,-4l0,-25.334015c0,-2.209015 1.791016,-4 4,-4l0,0c2.208984,0 4,1.790985 4,4l0,25.334015z"/>
  <path stroke-width="0" id="svg_12" fill="#FFFFFF" stroke="#000000" stroke-miterlimit="10" d="m184.983032,180.911011l-6.958984,-20.82901c-0.605042,-1.815979 0.601013,-3.855988 2.695007,-4.556976l0,0c2.095947,-0.700012 4.286987,0.204987 4.893005,2.021973l5.970947,18.370026"/>
  <path fill="#007f3f" id="svg_13" stroke="#FFFFFF" stroke-width="2" stroke-miterlimit="10" d="m146,204.001007c0,0 -4,-23.333008 -22.666992,-24s-22.666992,-2.666992 -41.333008,-2s-27.333008,18 -27.333008,18l40.666016,19.333008"/>
  <circle id="svg_14" fill="none" stroke="#ffd4aa" stroke-width="8" stroke-miterlimit="10" r="104.332993" cy="108.333015" cx="108.333016"/>
 </g>
</svg>